%YAML 1.1
%TAG !u! tag:unity3d.com,2011:
--- !u!114 &11400000
MonoBehaviour:
  m_ObjectHideFlags: 0
  m_CorrespondingSourceObject: {fileID: 0}
  m_PrefabInstance: {fileID: 0}
  m_PrefabAsset: {fileID: 0}
  m_GameObject: {fileID: 0}
  m_Enabled: 1
  m_EditorHideFlags: 0
  m_Script: {fileID: 11500000, guid: 3978fa85208d20647887d6d8fa892d4c, type: 3}
  m_Name: MutationTutorialContext
  m_EditorClassIdentifier: 
  _initialValue:
    useReference: 0
    internalValue: 1
    objectReference: {fileID: 0}
  _runtimeValue:
    _variable: 0
    _onBeforeValueChanged:
      events:
      - _name: Default
        _event:
          unityEvent:
            m_PersistentCalls:
              m_Calls: []
          _defaultValue: 0
      _defaultValue: 0
    _onValueChanged:
      events:
      - _name: Default
        _event:
          unityEvent:
            m_PersistentCalls:
              m_Calls: []
          _defaultValue: 0
      _defaultValue: 0
    triggerRedundantAttributions: 0
