%YAML 1.1
%TAG !u! tag:unity3d.com,2011:
--- !u!114 &11400000
MonoBehaviour:
  m_ObjectHideFlags: 0
  m_CorrespondingSourceObject: {fileID: 0}
  m_PrefabInstance: {fileID: 0}
  m_PrefabAsset: {fileID: 0}
  m_GameObject: {fileID: 0}
  m_Enabled: 1
  m_EditorHideFlags: 0
  m_Script: {fileID: 11500000, guid: ef8315e069b84d7a9a402d4bf49ff2f2, type: 3}
  m_Name: StopDefaultFadeGameEvent
  m_EditorClassIdentifier: 
  _event:
    events:
    - _name: Default
      _event:
        unityEvent:
          m_PersistentCalls:
            m_Calls: []
        _defaultValue: 0
    _defaultValue: 0
