%YAML 1.1
%TAG !u! tag:unity3d.com,2011:
--- !u!114 &11400000
MonoBehaviour:
  m_ObjectHideFlags: 0
  m_CorrespondingSourceObject: {fileID: 0}
  m_PrefabInstance: {fileID: 0}
  m_PrefabAsset: {fileID: 0}
  m_GameObject: {fileID: 0}
  m_Enabled: 1
  m_EditorHideFlags: 0
  m_Script: {fileID: 11500000, guid: 63a8a97fd62d40988489ef513368c126, type: 3}
  m_Name: DeckDesignSettings
  m_EditorClassIdentifier: 
  _bacteriaMinPower: 1
  _bacteriaMaxPower: 4
  _bacteriaNumberOfDuplicates: 4
  _bacteriaFileName: BacteriaDeck.txt
  _treatmentMinPower: 1
  _treatmentMaxPower: 4
  _treatmentNumberOfDuplicates: 4
  _numberOfRevealerCards: 10
  _treatmentFileName: TreatmentDeck.txt
